C:\Users\alex2\Documents\grupo12_bithub\TP4\src\test\java\ar\edu\unlp\info\bd2\services\HibernateBithubTestCase.java
C:\Users\alex2\Documents\grupo12_bithub\TP4\src\test\java\ar\edu\unlp\info\bd2\services\BithubServiceTestCase.java
C:\Users\alex2\Documents\grupo12_bithub\TP4\src\test\java\ar\edu\unlp\info\bd2\services\SpringDataBithubTestCase.java
C:\Users\alex2\Documents\grupo12_bithub\TP4\src\test\java\ar\edu\unlp\info\bd2\services\MongoDBBithubServiceTestCase.java
